R-Blog-BlueCognition - Network Analysis on subreddit r/politics
…
#first I created a count column
politik_final2 <- politik_final2 %>% mutate(countid = "1")
politik_final2$countid <- as.numeric(politik_final2$countid)

#preparing tables
library(data.table)
politik_table2 <- data.table(politik_final2)

#total posts grouped by author
count_table2 <- politik_table2 %>% group_by(author) %>% summarise(Total_posts = sum(countid))
count_table2 <- count_table2 %>% arrange(desc(Total_posts))
print(count_table2)

# A tibble: 80 × 2
   author            Total_posts
   <chr>                   <dbl>
 1 BrtFrkwr                    7
 2 betterwoke                  5
 3 Hattopia                    4
 4 TheBodyPolitic1             4
 5 TheRandomInteger            4
 6 AngusMcTibbins              3
 7 Due-Shirt616                3
 8 NoDesinformatziya           3
 9 TheReddestOrange            3
10 DarkwingDuckHunt            2
# ℹ 70 more rows

summary_votes <- politik_table2 %>% group_by(author) %>% summarize(Total_Score = sum(score))
summary_votes <- summary_votes %>% arrange(desc(Total_Score))
print(summary_votes)

# A tibble: 80 × 2
   author             Total_Score
   <chr>                    <int>
 1 r-m-russell                 76
 2 AngusMcTibbins              68
 3 OverlyComplexPants          40
 4 BrtFrkwr                    33
 5 betterwoke                  28
 6 TheBodyPolitic1             24
 7 penis_berry_crunch          22
 8 Due-Shirt616                21
 9 NoDesinformatziya           20
10 YeaterdaysQuim              20
# ℹ 70 more rows

#Score as a proportion of comments
summary_score_ratio <- politik_table2 %>% group_by(author) %>% summarize(Ratio_score_per_comment = sum(score)/sum(countid))
summary_score_ratio <- summary_score_ratio %>% arrange(desc(Ratio_score_per_comment))
print(summary_score_ratio)

# A tibble: 80 × 2
   author             Ratio_score_per_comment
   <chr>                                <dbl>
 1 r-m-russell                           76  
 2 OverlyComplexPants                    40  
 3 AngusMcTibbins                        22.7
 4 penis_berry_crunch                    22  
 5 YeaterdaysQuim                        20  
 6 fxkatt                                20  
 7 grixorbatz                            17  
 8 Sea_Engine4333                        16  
 9 Quiet_Dimensions                      14  
10 hdiggyh                               14  
# ℹ 70 more rows
…
# 4. Find maximum degree for each community

highest_degree_nodes <- df_comm %>%
  group_by(Community) %>%
  filter(Degree == max(Degree)) %>%
  ungroup()

highest_degree_nodes %>% arrange(-desc(Community))

# A tibble: 51 × 3
   Node               Community Degree
   <chr>                  <dbl>  <dbl>
 1 Knoxcore                   1     15
 2 NoDesinformatziya          1     15
 3 BrtFrkwr                   2     14
 4 r-m-russell                3      4
 5 penis_berry_crunch         3      4
 6 CecilTWashington           3      4
 7 caserock                   3      4
 8 gefjunhel                  3      4
 9 iuthnj34                   4      3
10 YeaterdaysQuim             4      3
# ℹ 41 more rows
…
